…
``` r
average_duration_month <- CyclisticV2 %>%
  group_by(member_casual, month) %>%
  summarise(average_duration = mean(ride_len)/60, )
```

    ## `summarise()` has grouped output by 'member_casual'. You can override using the
    ## `.groups` argument.

``` r
print(average_duration_month)
```

    ## # A tibble: 24 × 3
    ## # Groups:   member_casual [2]
    ##    member_casual month average_duration
    ##    <chr>         <ord>            <dbl>
    ##  1 casual        Jul               32.8
    ##  2 casual        Aug               28.8
    ##  3 casual        Sep               27.8
    ##  4 casual        Oct               28.7
    ##  5 casual        Nov               23.2
    ##  6 casual        Dec               23.5
    ##  7 casual        Jan               30.4
    ##  8 casual        Feb               26.7
    ##  9 casual        Mar               32.6
    ## 10 casual        Apr               29.5
    ## # … with 14 more rows
    ## # ℹ Use `print(n = ...)` to see more rows
…
``` r
average_duration_hour <- CyclisticV2 %>%
  group_by(member_casual, started_hour) %>%
  summarise(average_duration = mean(ride_len)/60, )
```

    ## `summarise()` has grouped output by 'member_casual'. You can override using the
    ## `.groups` argument.

``` r
print(average_duration_hour)
```

    ## # A tibble: 48 × 3
    ## # Groups:   member_casual [2]
    ##    member_casual started_hour average_duration
    ##    <chr>                <int>            <dbl>
    ##  1 casual                   0             32.1
    ##  2 casual                   1             32.4
    ##  3 casual                   2             39.1
    ##  4 casual                   3             40.0
    ##  5 casual                   4             43.0
    ##  6 casual                   5             24.3
    ##  7 casual                   6             20.9
    ##  8 casual                   7             20.5
    ##  9 casual                   8             23.0
    ## 10 casual                   9             27.6
    ## # … with 38 more rows
    ## # ℹ Use `print(n = ...)` to see more rows
…
``` r
num_of_rides_hour <- CyclisticV2 %>%
  group_by(member_casual, started_hour) %>%
  summarise(count = length(ride_len), )
```

    ## `summarise()` has grouped output by 'member_casual'. You can override using the
    ## `.groups` argument.

``` r
print(num_of_rides_hour)
```

    ## # A tibble: 48 × 3
    ## # Groups:   member_casual [2]
    ##    member_casual started_hour count
    ##    <chr>                <int> <int>
    ##  1 casual                   0 52223
    ##  2 casual                   1 36503
    ##  3 casual                   2 24186
    ##  4 casual                   3 13741
    ##  5 casual                   4  9755
    ##  6 casual                   5 13579
    ##  7 casual                   6 28466
    ##  8 casual                   7 52875
    ##  9 casual                   8 70379
    ## 10 casual                   9 79312
    ## # … with 38 more rows
    ## # ℹ Use `print(n = ...)` to see more rows
…
